opengeohub23 - Tidy geographic data
…
tmap_mode("plot")

tmap mode set to plotting

The next code chunk reads-in a larger dataset, representing transport-related features around Poznan (note: you need to have downloaded and unzipped the data.zip file into your project or working directory for this to work):

pol_all = sf::read_sf("./data/osm/gis_osm_transport_a_free_1.shp")
pol_all

Simple feature collection with 282 features and 4 fields
Geometry type: POLYGON
Dimension:     XY
Bounding box:  xmin: 15.76877 ymin: 51.42587 xmax: 18.51031 ymax: 53.52821
Geodetic CRS:  WGS 84
# A tibble: 282 × 5
   osm_id    code fclass          name                                  geometry
   <chr>    <int> <chr>           <chr>                            <POLYGON [°]>
 1 27923283  5656 apron           <NA>                 ((16.84088 52.42479, 16.…
 2 28396243  5656 apron           <NA>                 ((16.9675 52.32743, 16.9…
 3 28396249  5656 apron           <NA>                 ((16.98029 52.32399, 16.…
 4 28396250  5656 apron           <NA>                 ((16.97407 52.32418, 16.…
 5 30164579  5656 apron           <NA>                 ((16.71011 53.16458, 16.…
 6 32225811  5601 railway_station Czerwonak            ((16.9798 52.46868, 16.9…
 7 36204378  5622 bus_station     <NA>                 ((16.95469 52.40964, 16.…
 8 50701732  5651 airport         Lądowisko Poznań-Be… ((17.19788 52.53491, 17.…
 9 55590985  5622 bus_station     Dworzec PKS-stanowi… ((17.20243 52.80927, 17.…
10 56064358  5651 airport         Port lotniczy Zielo… ((15.76877 52.13175, 15.…
# ℹ 272 more rows
…
